﻿{
  "Descriptor": {
    "UId": "c1f35f97-2329-4330-9196-da6e10bdf7bf",
    "Name": "LeadPageV2",
    "ModifiedOnUtc": "\/Date(1683817565000)\/",
    "Parent": {
      "UId": "ddf8941f-92f3-4b10-9f59-faab18c12f46",
      "Name": "LeadPageV2"
    },
    "ExtendParent": true,
    "ManagerName": "ClientUnitSchemaManager",
    "Caption": "Страница редактирования лида"
  }
}