﻿{
  "Descriptor": {
    "UId": "0fc1ed7a-093d-48fe-b411-6f02dd8b704e",
    "Name": "GbcCase_8c2395a",
    "ModifiedOnUtc": "\/Date(1684191346000)\/",
    "ManagerName": "DcmSchemaManager",
    "Caption": "Статус доставки"
  }
}