﻿{
  "Descriptor": {
    "UId": "2ad91a48-e185-4895-a827-5c3a4bd1cd64",
    "Name": "Lead",
    "ModifiedOnUtc": "\/Date(1683813342000)\/",
    "Parent": {
      "UId": "41af89e9-750b-4ebb-8cac-ff39b64841ec",
      "Name": "Lead"
    },
    "ExtendParent": true,
    "ManagerName": "EntitySchemaManager",
    "Caption": "Лид"
  }
}