﻿{
  "Descriptor": {
    "UId": "9da818b6-30cb-4a9e-92e0-6fc9a96af13d",
    "Name": "GbcDeliveryTypeList",
    "ModifiedOnUtc": "\/Date(1684054461000)\/",
    "Parent": {
      "UId": "11ab4bcb-9b23-4b6d-9c86-520fae925d75",
      "Name": "BaseLookup"
    },
    "ManagerName": "EntitySchemaManager",
    "Caption": "Тип доставки"
  }
}