﻿{
  "Descriptor": {
    "UId": "a58c2404-8d89-4c90-9ab2-21168694f968",
    "Name": "GbcDeliveryCreationFillInOrder",
    "ModifiedOnUtc": "\/Date(1684065864000)\/",
    "ManagerName": "ProcessSchemaManager",
    "Caption": "Доставка. Создание. Проставление в Заказе"
  }
}