﻿{
  "Descriptor": {
    "UId": "4d628d15-e068-4ed6-aaf4-4764c405adb1",
    "Name": "LeadSectionV2",
    "ModifiedOnUtc": "\/Date(1683813326000)\/",
    "Parent": {
      "UId": "11939bd1-a5b4-4f3f-9f89-3bd0baad06e9",
      "Name": "LeadSectionV2"
    },
    "ExtendParent": true,
    "ManagerName": "ClientUnitSchemaManager",
    "Caption": "Схема раздела: \"Лиды\""
  }
}