﻿{
  "Descriptor": {
    "UId": "59dba3dc-5828-447c-b5f5-5914eebeebfb",
    "Name": "GbcDeliveryFillProductsInOrder",
    "ModifiedOnUtc": "\/Date(1684189084000)\/",
    "ManagerName": "ProcessSchemaManager",
    "Caption": "Доставка. Заполнение Продуктов из Заказа"
  }
}