﻿{
  "Descriptor": {
    "UId": "034e73ec-6c36-4624-b08d-e7bb47eb9fb0",
    "Name": "Account",
    "ModifiedOnUtc": "\/Date(1683814131000)\/",
    "Parent": {
      "UId": "25d7c1ab-1de0-4501-b402-02e0e5a72d6e",
      "Name": "Account"
    },
    "ExtendParent": true,
    "ManagerName": "EntitySchemaManager",
    "Caption": "Контрагент"
  }
}