{
  "MetaData": {
    "Schema": {
      "ManagerName": "ProcessSchemaManager",
      "UId": "91908514-8490-4a04-bd23-b527aede3b09",
      "A2": "GbcProcessAccountWithoutActivity1",
      "A5": "91b7d676-0608-4776-8ee4-5aa0f41571b3",
      "B1": [],
      "B2": [],
      "B3": [],
      "B6": "6dd0278e-dd75-0115-993a-02041afea60c",
      "B8": "7.18.5.1500",
      "FJ1": [
        {
          "BL1": "Terrasoft.Core.Process.ProcessSchemaParameter",
          "UId": "0c306645-d138-4b06-83cd-7d835348b6f2",
          "A2": "ProcessSchemaContacts",
          "A3": "91908514-8490-4a04-bd23-b527aede3b09",
          "A4": "91908514-8490-4a04-bd23-b527aede3b09",
          "L1": "651ec16f-d140-46db-b9e2-825c985a8ac2",
          "L8": {
            "GS1": 3,
            "GS2": "[#[IsOwnerSchema:false].[IsSchema:false].[Element:{d191b705-4494-473f-8e80-ac9b67df2821}].[Parameter:{170d5863-650d-47ec-a959-038e254bffda}]#]",
            "GS5": "91908514-8490-4a04-bd23-b527aede3b09"
          },
          "L12": 1,
          "L18": [
            {
              "BL1": "Terrasoft.Core.Process.ProcessSchemaParameter",
              "UId": "31af1ecd-26ec-4fa5-8bc5-aa1cfd09e7b3",
              "A2": "ProcessSchemaContactID",
              "A3": "91908514-8490-4a04-bd23-b527aede3b09",
              "A4": "91908514-8490-4a04-bd23-b527aede3b09",
              "L1": "23018567-a13c-4320-8687-fd6f9e3699bd",
              "L8": {
                "GS1": 3,
                "GS2": "[#[IsOwnerSchema:false].[IsSchema:false].[Element:{d191b705-4494-473f-8e80-ac9b67df2821}].[Parameter:{33751fbd-e7b0-4cc3-84b5-5ebd1b255698}]#]",
                "GS5": "91908514-8490-4a04-bd23-b527aede3b09"
              }
            }
          ]
        },
        {
          "BL1": "Terrasoft.Core.Process.ProcessSchemaParameter",
          "UId": "afe02831-b5a4-4582-811e-d1e666f90d89",
          "A2": "ProcessSchemaContactId",
          "A3": "91908514-8490-4a04-bd23-b527aede3b09",
          "A4": "91908514-8490-4a04-bd23-b527aede3b09",
          "L1": "23018567-a13c-4320-8687-fd6f9e3699bd",
          "L8": {
            "GS5": "91908514-8490-4a04-bd23-b527aede3b09"
          },
          "L12": 1
        }
      ],
      "IJ1": true,
      "BK8": "bb4d6607-026b-4b27-b640-8f5c77c1e89d",
      "IJ10": true,
      "BK15": [
        {
          "BL1": "Terrasoft.Core.Process.ProcessSchemaMapping",
          "UId": "11771a2e-d44a-401f-a467-42af44c28ad1",
          "A2": "ReadDataUserTask1",
          "A3": "91908514-8490-4a04-bd23-b527aede3b09",
          "A4": "91908514-8490-4a04-bd23-b527aede3b09",
          "GT2": "[Element:{d191b705-4494-473f-8e80-ac9b67df2821}].[Parameter:{d2d27210-13e8-4efa-bf59-7fcea518492b}]",
          "GT3": "d2d27210-13e8-4efa-bf59-7fcea518492b",
          "GT5": "5d9ac9a7-7782-49ce-8990-dcb1c73832b0",
          "GT4": "cb455b6f-78ff-4b1e-b241-c2bbc0b37e9f",
          "GT1": {
            "GS1": 1,
            "GS2": "{\"className\":\"Terrasoft.FilterGroup\",\"serializedFilterEditData\":\"{\\\"className\\\":\\\"Terrasoft.FilterGroup\\\",\\\"items\\\":{\\\"a56ea24f-7a0a-45cc-ac7d-aea72c02f091\\\":{\\\"className\\\":\\\"Terrasoft.IsNullFilter\\\",\\\"filterType\\\":2,\\\"comparisonType\\\":2,\\\"isEnabled\\\":true,\\\"trimDateTimeParameterToDate\\\":false,\\\"leftExpression\\\":{\\\"className\\\":\\\"Terrasoft.ColumnExpression\\\",\\\"expressionType\\\":0,\\\"columnPath\\\":\\\"Contact\\\"},\\\"isAggregative\\\":false,\\\"key\\\":\\\"a56ea24f-7a0a-45cc-ac7d-aea72c02f091\\\",\\\"dataValueType\\\":10,\\\"leftExpressionCaption\\\":\\\"Контакт\\\",\\\"referenceSchemaName\\\":\\\"Contact\\\",\\\"isNull\\\":false}},\\\"logicalOperation\\\":0,\\\"isEnabled\\\":true,\\\"filterType\\\":6,\\\"rootSchemaName\\\":\\\"VwSystemUsers\\\",\\\"key\\\":\\\"\\\"}\",\"dataSourceFilters\":\"{\\\"items\\\":{\\\"a56ea24f-7a0a-45cc-ac7d-aea72c02f091\\\":{\\\"filterType\\\":2,\\\"comparisonType\\\":2,\\\"isEnabled\\\":true,\\\"trimDateTimeParameterToDate\\\":false,\\\"leftExpression\\\":{\\\"expressionType\\\":0,\\\"columnPath\\\":\\\"Contact\\\"},\\\"isNull\\\":false}},\\\"logicalOperation\\\":0,\\\"isEnabled\\\":true,\\\"filterType\\\":6,\\\"rootSchemaName\\\":\\\"VwSystemUsers\\\"}\"}",
            "GS5": "91908514-8490-4a04-bd23-b527aede3b09"
          }
        },
        {
          "BL1": "Terrasoft.Core.Process.ProcessSchemaMapping",
          "UId": "6da14022-ed4f-441f-a9f4-570d2b9b271a",
          "A2": "ReadDataUserTask1",
          "A3": "91908514-8490-4a04-bd23-b527aede3b09",
          "A4": "91908514-8490-4a04-bd23-b527aede3b09",
          "GT2": "[Element:{d191b705-4494-473f-8e80-ac9b67df2821}].[Parameter:{9d29c2f3-937a-497d-9691-dfb23b289726}]",
          "GT3": "9d29c2f3-937a-497d-9691-dfb23b289726",
          "GT5": "643e4d6d-7ec8-49f0-842a-066a996fbe8b",
          "GT4": "cb455b6f-78ff-4b1e-b241-c2bbc0b37e9f",
          "GT1": {
            "GS1": 1,
            "GS2": "2",
            "GS5": "cb455b6f-78ff-4b1e-b241-c2bbc0b37e9f"
          }
        },
        {
          "BL1": "Terrasoft.Core.Process.ProcessSchemaMapping",
          "UId": "32911ad9-1e2c-42ca-9720-05655b128f49",
          "A2": "ReadDataUserTask1",
          "A3": "91908514-8490-4a04-bd23-b527aede3b09",
          "A4": "91908514-8490-4a04-bd23-b527aede3b09",
          "GT2": "[Element:{d191b705-4494-473f-8e80-ac9b67df2821}].[Parameter:{2e0d93b3-fb5f-47bf-99f9-af5958ec1a77}]",
          "GT3": "2e0d93b3-fb5f-47bf-99f9-af5958ec1a77",
          "GT5": "29115add-7520-4ad4-8371-d91f537ac913",
          "GT4": "cb455b6f-78ff-4b1e-b241-c2bbc0b37e9f",
          "GT1": {
            "GS1": 1,
            "GS2": "true"
          }
        },
        {
          "BL1": "Terrasoft.Core.Process.ProcessSchemaMapping",
          "UId": "a921b3a5-1a5f-45bf-99f6-0f77748b70ef",
          "A2": "ReadDataUserTask1",
          "A3": "91908514-8490-4a04-bd23-b527aede3b09",
          "A4": "91908514-8490-4a04-bd23-b527aede3b09",
          "GT2": "[Element:{d191b705-4494-473f-8e80-ac9b67df2821}].[Parameter:{f01c6570-1e8e-49c1-a4df-1eb656ef1c2c}]",
          "GT3": "f01c6570-1e8e-49c1-a4df-1eb656ef1c2c",
          "GT5": "f29e5660-c5ef-4d84-8331-9046c3093519",
          "GT4": "cb455b6f-78ff-4b1e-b241-c2bbc0b37e9f",
          "GT1": {
            "GS1": 1,
            "GS2": "100",
            "GS5": "91908514-8490-4a04-bd23-b527aede3b09"
          }
        },
        {
          "BL1": "Terrasoft.Core.Process.ProcessSchemaMapping",
          "UId": "cbccfc35-cc29-4742-85e5-f109204e5b92",
          "A2": "ReadDataUserTask1",
          "A3": "91908514-8490-4a04-bd23-b527aede3b09",
          "A4": "91908514-8490-4a04-bd23-b527aede3b09",
          "GT2": "[Element:{d191b705-4494-473f-8e80-ac9b67df2821}].[Parameter:{8f60e828-d324-41bc-ae90-b6d72d9fcbe4}]",
          "GT3": "8f60e828-d324-41bc-ae90-b6d72d9fcbe4",
          "GT5": "94ba9876-18c1-4a68-bcef-08f7e7f0e25c",
          "GT4": "cb455b6f-78ff-4b1e-b241-c2bbc0b37e9f",
          "GT1": {
            "GS1": 1,
            "GS2": "0"
          }
        },
        {
          "BL1": "Terrasoft.Core.Process.ProcessSchemaMapping",
          "UId": "7711e4c1-0b75-4853-b50e-5a8f4d36c14c",
          "A2": "ReadDataUserTask1",
          "A3": "91908514-8490-4a04-bd23-b527aede3b09",
          "A4": "91908514-8490-4a04-bd23-b527aede3b09",
          "GT2": "[Element:{d191b705-4494-473f-8e80-ac9b67df2821}].[Parameter:{d6b36b30-a249-4c82-85f7-57e91904ca5e}]",
          "GT3": "d6b36b30-a249-4c82-85f7-57e91904ca5e",
          "GT5": "cb5d6d26-7e81-4cbe-8730-8b7169000d14",
          "GT4": "cb455b6f-78ff-4b1e-b241-c2bbc0b37e9f",
          "GT1": {}
        },
        {
          "BL1": "Terrasoft.Core.Process.ProcessSchemaMapping",
          "UId": "6bff332c-8499-4205-9ba1-86677b8d2ffe",
          "A2": "ReadDataUserTask1",
          "A3": "91908514-8490-4a04-bd23-b527aede3b09",
          "A4": "91908514-8490-4a04-bd23-b527aede3b09",
          "GT2": "[Element:{d191b705-4494-473f-8e80-ac9b67df2821}].[Parameter:{9aef2388-70d3-43d2-89d0-3bfe6528a3d3}]",
          "GT3": "9aef2388-70d3-43d2-89d0-3bfe6528a3d3",
          "GT5": "473e79e2-727e-40a7-8829-7eefc576b403",
          "GT4": "cb455b6f-78ff-4b1e-b241-c2bbc0b37e9f",
          "GT1": {}
        },
        {
          "BL1": "Terrasoft.Core.Process.ProcessSchemaMapping",
          "UId": "ca154bdb-3fbc-4e69-8bb9-c907ee8c54de",
          "A2": "ReadDataUserTask1",
          "A3": "91908514-8490-4a04-bd23-b527aede3b09",
          "A4": "91908514-8490-4a04-bd23-b527aede3b09",
          "GT2": "[Element:{d191b705-4494-473f-8e80-ac9b67df2821}].[Parameter:{b0619b24-3403-46eb-a2d3-c275e02c866f}]",
          "GT3": "b0619b24-3403-46eb-a2d3-c275e02c866f",
          "GT5": "e2fced10-4842-423e-ada0-523bf7ea8ad3",
          "GT4": "cb455b6f-78ff-4b1e-b241-c2bbc0b37e9f",
          "GT1": {
            "GS1": 1,
            "GS5": "91908514-8490-4a04-bd23-b527aede3b09"
          }
        },
        {
          "BL1": "Terrasoft.Core.Process.ProcessSchemaMapping",
          "UId": "f18cc6e6-33ea-488f-a4ed-2ddcaf5c593c",
          "A2": "ReadDataUserTask1",
          "A3": "91908514-8490-4a04-bd23-b527aede3b09",
          "A4": "91908514-8490-4a04-bd23-b527aede3b09",
          "GT2": "[Element:{d191b705-4494-473f-8e80-ac9b67df2821}].[Parameter:{6593d379-5f61-413c-8de9-7e5ba72ac309}]",
          "GT3": "6593d379-5f61-413c-8de9-7e5ba72ac309",
          "GT5": "2e63ea99-8125-4254-88bd-20d3610bd471",
          "GT4": "cb455b6f-78ff-4b1e-b241-c2bbc0b37e9f",
          "GT1": {}
        },
        {
          "BL1": "Terrasoft.Core.Process.ProcessSchemaMapping",
          "UId": "e88c9028-6777-48ef-9488-de3a22996be5",
          "A2": "ReadDataUserTask1",
          "A3": "91908514-8490-4a04-bd23-b527aede3b09",
          "A4": "91908514-8490-4a04-bd23-b527aede3b09",
          "GT2": "[Element:{d191b705-4494-473f-8e80-ac9b67df2821}].[Parameter:{b0dd7129-cc5f-4560-8494-1cfc38e9c71b}]",
          "GT3": "b0dd7129-cc5f-4560-8494-1cfc38e9c71b",
          "GT5": "a3660fce-a8f9-4a68-a3c1-b4f2f7983635",
          "GT4": "cb455b6f-78ff-4b1e-b241-c2bbc0b37e9f",
          "GT1": {}
        },
        {
          "BL1": "Terrasoft.Core.Process.ProcessSchemaMapping",
          "UId": "ca6c9a5d-436e-4d16-a66a-6b538f8c19da",
          "A2": "ReadDataUserTask1",
          "A3": "91908514-8490-4a04-bd23-b527aede3b09",
          "A4": "91908514-8490-4a04-bd23-b527aede3b09",
          "GT2": "[Element:{d191b705-4494-473f-8e80-ac9b67df2821}].[Parameter:{47eedbfb-169f-48a6-af10-324f88705ba0}]",
          "GT3": "47eedbfb-169f-48a6-af10-324f88705ba0",
          "GT5": "9a594933-75da-4304-b6a3-5945dba159e3",
          "GT4": "cb455b6f-78ff-4b1e-b241-c2bbc0b37e9f",
          "GT1": {}
        },
        {
          "BL1": "Terrasoft.Core.Process.ProcessSchemaMapping",
          "UId": "74c72381-22b3-4260-92cd-cb9921105038",
          "A2": "ReadDataUserTask1",
          "A3": "91908514-8490-4a04-bd23-b527aede3b09",
          "A4": "91908514-8490-4a04-bd23-b527aede3b09",
          "GT2": "[Element:{d191b705-4494-473f-8e80-ac9b67df2821}].[Parameter:{c7ef2b5d-5c0e-4425-8c02-f4869dd8a3bd}]",
          "GT3": "c7ef2b5d-5c0e-4425-8c02-f4869dd8a3bd",
          "GT5": "11fb235f-c06a-4111-84cd-a5dbf9a440d5",
          "GT4": "cb455b6f-78ff-4b1e-b241-c2bbc0b37e9f",
          "GT1": {}
        },
        {
          "BL1": "Terrasoft.Core.Process.ProcessSchemaMapping",
          "UId": "46eb9737-7459-42cc-8c31-a12a7c31ac68",
          "A2": "ReadDataUserTask1",
          "A3": "91908514-8490-4a04-bd23-b527aede3b09",
          "A4": "91908514-8490-4a04-bd23-b527aede3b09",
          "GT2": "[Element:{d191b705-4494-473f-8e80-ac9b67df2821}].[Parameter:{75d7e7a0-c445-4def-808b-80c0253f4f5f}]",
          "GT3": "75d7e7a0-c445-4def-808b-80c0253f4f5f",
          "GT5": "78252e95-b759-416a-9c48-c128fbdf59ef",
          "GT4": "cb455b6f-78ff-4b1e-b241-c2bbc0b37e9f",
          "GT1": {}
        },
        {
          "BL1": "Terrasoft.Core.Process.ProcessSchemaMapping",
          "UId": "595ac647-dc3d-4d18-9276-67811d7e4910",
          "A2": "ReadDataUserTask1",
          "A3": "91908514-8490-4a04-bd23-b527aede3b09",
          "A4": "91908514-8490-4a04-bd23-b527aede3b09",
          "GT2": "[Element:{d191b705-4494-473f-8e80-ac9b67df2821}].[Parameter:{c082cdec-3308-4a7a-b519-233c15b142e9}]",
          "GT3": "c082cdec-3308-4a7a-b519-233c15b142e9",
          "GT5": "2f797429-6f43-4594-96bb-62fbc7b7deec",
          "GT4": "cb455b6f-78ff-4b1e-b241-c2bbc0b37e9f",
          "GT1": {
            "GS1": 1,
            "GS2": "true",
            "GS5": "cb455b6f-78ff-4b1e-b241-c2bbc0b37e9f"
          }
        },
        {
          "BL1": "Terrasoft.Core.Process.ProcessSchemaMapping",
          "UId": "31b73857-cda4-4a31-bf73-b113ab6f9725",
          "A2": "ReadDataUserTask1",
          "A3": "91908514-8490-4a04-bd23-b527aede3b09",
          "A4": "91908514-8490-4a04-bd23-b527aede3b09",
          "GT2": "[Element:{d191b705-4494-473f-8e80-ac9b67df2821}].[Parameter:{562007f7-ec62-4e34-a90f-a6ad0b198feb}]",
          "GT3": "562007f7-ec62-4e34-a90f-a6ad0b198feb",
          "GT5": "be4a0d16-6a15-41cf-ac44-a8b757565428",
          "GT4": "cb455b6f-78ff-4b1e-b241-c2bbc0b37e9f",
          "GT1": {}
        },
        {
          "BL1": "Terrasoft.Core.Process.ProcessSchemaMapping",
          "UId": "bcfa4861-3fce-4864-bb5a-4bcbc788db92",
          "A2": "ReadDataUserTask1",
          "A3": "91908514-8490-4a04-bd23-b527aede3b09",
          "A4": "91908514-8490-4a04-bd23-b527aede3b09",
          "GT2": "[Element:{d191b705-4494-473f-8e80-ac9b67df2821}].[Parameter:{fa6c7e33-12a7-471e-a9ba-059fe620c57a}]",
          "GT3": "fa6c7e33-12a7-471e-a9ba-059fe620c57a",
          "GT5": "cc12005f-f434-4a40-b9d0-dc8f81755545",
          "GT4": "cb455b6f-78ff-4b1e-b241-c2bbc0b37e9f",
          "GT1": {
            "GS1": 1,
            "GS2": "33751fbd-e7b0-4cc3-84b5-5ebd1b255698",
            "GS5": "91908514-8490-4a04-bd23-b527aede3b09"
          }
        },
        {
          "BL1": "Terrasoft.Core.Process.ProcessSchemaMapping",
          "UId": "df345ef2-5544-4abe-9ecc-577df158441f",
          "A2": "ReadDataUserTask1",
          "A3": "91908514-8490-4a04-bd23-b527aede3b09",
          "A4": "91908514-8490-4a04-bd23-b527aede3b09",
          "GT2": "[Element:{d191b705-4494-473f-8e80-ac9b67df2821}].[Parameter:{7c7f3df5-4cd8-4d3b-8041-6e67e88809e6}]",
          "GT3": "7c7f3df5-4cd8-4d3b-8041-6e67e88809e6",
          "GT5": "6dada847-859b-4e0a-9297-b3c9572530b6",
          "GT4": "cb455b6f-78ff-4b1e-b241-c2bbc0b37e9f",
          "GT1": {}
        },
        {
          "BL1": "Terrasoft.Core.Process.ProcessSchemaMapping",
          "UId": "c45c0920-b0c6-4e59-b002-1075443550ca",
          "A2": "ReadDataUserTask1",
          "A3": "91908514-8490-4a04-bd23-b527aede3b09",
          "A4": "91908514-8490-4a04-bd23-b527aede3b09",
          "GT2": "[Element:{d191b705-4494-473f-8e80-ac9b67df2821}].[Parameter:{170d5863-650d-47ec-a959-038e254bffda}]",
          "GT3": "170d5863-650d-47ec-a959-038e254bffda",
          "GT5": "555901ef-f707-4803-a887-1bc07e882096",
          "GT4": "cb455b6f-78ff-4b1e-b241-c2bbc0b37e9f",
          "GT1": {}
        },
        {
          "BL1": "Terrasoft.Core.Process.ProcessSchemaMapping",
          "UId": "e41b952e-2557-499c-8003-c2f7b1d0c637",
          "A2": "ReadDataUserTask1",
          "A3": "91908514-8490-4a04-bd23-b527aede3b09",
          "A4": "91908514-8490-4a04-bd23-b527aede3b09",
          "GT2": "[Element:{d191b705-4494-473f-8e80-ac9b67df2821}].[Parameter:{e81d99f2-dea2-49cc-895b-655c747d61fe}]",
          "GT3": "e81d99f2-dea2-49cc-895b-655c747d61fe",
          "GT5": "978b550e-1b81-448a-8700-9c9190c3a2a4",
          "GT4": "cb455b6f-78ff-4b1e-b241-c2bbc0b37e9f",
          "GT1": {
            "GS1": 3,
            "GS2": "true",
            "GS5": "cb455b6f-78ff-4b1e-b241-c2bbc0b37e9f",
            "GS8": "false"
          }
        },
        {
          "BL1": "Terrasoft.Core.Process.ProcessSchemaMapping",
          "UId": "7a933ad5-4991-4815-8fa1-75fd65af65a4",
          "A2": "SubProcess1",
          "A3": "91908514-8490-4a04-bd23-b527aede3b09",
          "A4": "91908514-8490-4a04-bd23-b527aede3b09",
          "GT2": "[Element:{100c571b-6dda-4604-9389-acbb32318e4c}].[Parameter:{4e7c093a-5768-4894-b798-844457348c4e}]",
          "GT3": "4e7c093a-5768-4894-b798-844457348c4e",
          "GT5": "caef0728-8ffa-4125-8ea0-0a0854cca1ed",
          "GT4": "110fb67b-9dfc-4678-af0c-93c3bf0f78b4",
          "GT1": {
            "GS2": "",
            "GS5": "110fb67b-9dfc-4678-af0c-93c3bf0f78b4"
          }
        },
        {
          "BL1": "Terrasoft.Core.Process.ProcessSchemaMapping",
          "UId": "3b0b34b9-01f4-411b-aab8-8d24eacf051b",
          "A2": "SubProcess1",
          "A3": "91908514-8490-4a04-bd23-b527aede3b09",
          "A4": "91908514-8490-4a04-bd23-b527aede3b09",
          "GT2": "[Element:{100c571b-6dda-4604-9389-acbb32318e4c}].[Parameter:{827456f3-ce90-4bf7-8f99-be5f45efb7f3}]",
          "GT3": "827456f3-ce90-4bf7-8f99-be5f45efb7f3",
          "GT5": "b17a06c5-095a-435f-9113-57d5843132f1",
          "GT4": "110fb67b-9dfc-4678-af0c-93c3bf0f78b4",
          "GT1": {
            "GS1": 3,
            "GS2": "[#[IsOwnerSchema:false].[IsSchema:false].[Element:{d191b705-4494-473f-8e80-ac9b67df2821}].[Parameter:{33751fbd-e7b0-4cc3-84b5-5ebd1b255698}]#]",
            "GS5": "110fb67b-9dfc-4678-af0c-93c3bf0f78b4"
          }
        },
        {
          "BL1": "Terrasoft.Core.Process.ProcessSchemaMapping",
          "UId": "39e29c50-ecfd-4446-b6b2-95c9840afcd6",
          "A2": "SubProcess1",
          "A3": "91908514-8490-4a04-bd23-b527aede3b09",
          "A4": "91908514-8490-4a04-bd23-b527aede3b09",
          "GT2": "[Element:{100c571b-6dda-4604-9389-acbb32318e4c}].[Parameter:{d1db96c9-1a47-441f-a778-ab001e0a9803}]",
          "GT3": "d1db96c9-1a47-441f-a778-ab001e0a9803",
          "GT5": "a8bb7237-9474-4d5d-8312-d9506a4f8590",
          "GT4": "110fb67b-9dfc-4678-af0c-93c3bf0f78b4",
          "GT1": {
            "GS2": "",
            "GS5": "110fb67b-9dfc-4678-af0c-93c3bf0f78b4"
          }
        },
        {
          "BL1": "Terrasoft.Core.Process.ProcessSchemaMapping",
          "UId": "365e39db-9670-458b-975f-44a07047b0b1",
          "A2": "SubProcess1",
          "A3": "91908514-8490-4a04-bd23-b527aede3b09",
          "A4": "91908514-8490-4a04-bd23-b527aede3b09",
          "GT2": "[Element:{100c571b-6dda-4604-9389-acbb32318e4c}].[Parameter:{157a1033-a167-45d3-a3ec-77877b7b2e5b}]",
          "GT3": "157a1033-a167-45d3-a3ec-77877b7b2e5b",
          "GT5": "5fb7dcbc-276d-42a7-a5b6-18c71947b5cc",
          "GT4": "110fb67b-9dfc-4678-af0c-93c3bf0f78b4",
          "GT1": {
            "GS2": "",
            "GS5": "110fb67b-9dfc-4678-af0c-93c3bf0f78b4"
          }
        }
      ],
      "BK37": {
        "BL1": "Terrasoft.Core.Process.ProcessSchemaParameter",
        "UId": "cdd58be7-2dba-4a5e-869b-1ad5d6d7513a",
        "A2": "NotificationCaption",
        "A3": "91908514-8490-4a04-bd23-b527aede3b09",
        "A4": "91908514-8490-4a04-bd23-b527aede3b09",
        "L1": "8b3f29bb-ea14-4ce5-a5c5-293a929b6ba2",
        "L8": {
          "GS1": 3,
          "GS2": "[#[PropertyValue:Caption]#]"
        }
      },
      "BK1": "FFFFFFFF",
      "BK2": "FFBBBBBB",
      "BK3": [
        {
          "BL1": "Terrasoft.Core.Process.ProcessSchemaLaneSet",
          "UId": "81c43d9f-8350-4a64-be35-a438413b2e71",
          "A2": "LaneSet1",
          "A3": "91908514-8490-4a04-bd23-b527aede3b09",
          "A4": "91908514-8490-4a04-bd23-b527aede3b09",
          "A5": "6dd0278e-dd75-0115-993a-02041afea60c",
          "BL7": "11a47caf-a0d5-41fa-a274-a0b11f77447a",
          "BL8": "91908514-8490-4a04-bd23-b527aede3b09",
          "BM4": [
            {
              "BL1": "Terrasoft.Core.Process.ProcessSchemaLane",
              "UId": "af98b43e-e9c7-4284-90fc-bc090cd99fb4",
              "A2": "Lane1",
              "A3": "91908514-8490-4a04-bd23-b527aede3b09",
              "A4": "91908514-8490-4a04-bd23-b527aede3b09",
              "A5": "6dd0278e-dd75-0115-993a-02041afea60c",
              "IL2": "81c43d9f-8350-4a64-be35-a438413b2e71",
              "BL7": "abcd74b9-5912-414b-82ac-f1aa4dcd554e",
              "BL8": "91908514-8490-4a04-bd23-b527aede3b09",
              "CD1": [],
              "CD2": [],
              "CD4": "81c43d9f-8350-4a64-be35-a438413b2e71",
              "CD7": []
            }
          ]
        }
      ],
      "BK5": [],
      "BK4": [
        {
          "BL1": "Terrasoft.Core.Process.ProcessSchemaStartEvent",
          "UId": "0df79a11-4de7-4be7-8a87-8f238a380ed6",
          "A2": "StartEvent1",
          "A3": "91908514-8490-4a04-bd23-b527aede3b09",
          "A4": "91908514-8490-4a04-bd23-b527aede3b09",
          "A5": "6dd0278e-dd75-0115-993a-02041afea60c",
          "IL2": "af98b43e-e9c7-4284-90fc-bc090cd99fb4",
          "BL3": "50;184",
          "BL7": "53818048-7868-48f6-ada0-0ebaa65af628",
          "BL8": "91908514-8490-4a04-bd23-b527aede3b09",
          "BN2": "31;31",
          "BO3": true,
          "FC1": []
        },
        {
          "BL1": "Terrasoft.Core.Process.ProcessSchemaTerminateEvent",
          "UId": "a655d4a9-163f-4cf3-88b2-963564a11acd",
          "A2": "TerminateEvent1",
          "A3": "91908514-8490-4a04-bd23-b527aede3b09",
          "A4": "91908514-8490-4a04-bd23-b527aede3b09",
          "A5": "6dd0278e-dd75-0115-993a-02041afea60c",
          "IL2": "af98b43e-e9c7-4284-90fc-bc090cd99fb4",
          "BL3": "965;184",
          "BL7": "1bd93619-0574-454e-bb4e-cf53b9eb9470",
          "BL8": "91908514-8490-4a04-bd23-b527aede3b09",
          "BN2": "31;31",
          "BO3": true,
          "FC1": []
        },
        {
          "BL1": "Terrasoft.Core.Process.ProcessSchemaUserTask",
          "UId": "d191b705-4494-473f-8e80-ac9b67df2821",
          "A2": "ReadDataUserTask1",
          "A3": "91908514-8490-4a04-bd23-b527aede3b09",
          "A4": "91908514-8490-4a04-bd23-b527aede3b09",
          "A5": "6dd0278e-dd75-0115-993a-02041afea60c",
          "IL2": "af98b43e-e9c7-4284-90fc-bc090cd99fb4",
          "BL3": "140;172",
          "BL7": "cb455b6f-78ff-4b1e-b241-c2bbc0b37e9f",
          "BL8": "91908514-8490-4a04-bd23-b527aede3b09",
          "BN2": "69;55",
          "BO2": true,
          "BO3": true,
          "BP2": [
            {
              "BL1": "Terrasoft.Core.Process.ProcessSchemaParameter",
              "UId": "d2d27210-13e8-4efa-bf59-7fcea518492b",
              "A2": "DataSourceFilters",
              "A3": "cb455b6f-78ff-4b1e-b241-c2bbc0b37e9f",
              "A4": "cb455b6f-78ff-4b1e-b241-c2bbc0b37e9f",
              "A5": "66e9e705-64b4-4dda-925e-d1e05a389eb6",
              "IL2": "d191b705-4494-473f-8e80-ac9b67df2821",
              "L1": "394e160f-c8e0-46fa-9c0d-75d97e9e9169",
              "L8": {
                "GS1": 1,
                "GS2": "{\"className\":\"Terrasoft.FilterGroup\",\"serializedFilterEditData\":\"{\\\"className\\\":\\\"Terrasoft.FilterGroup\\\",\\\"items\\\":{\\\"a56ea24f-7a0a-45cc-ac7d-aea72c02f091\\\":{\\\"className\\\":\\\"Terrasoft.IsNullFilter\\\",\\\"filterType\\\":2,\\\"comparisonType\\\":2,\\\"isEnabled\\\":true,\\\"trimDateTimeParameterToDate\\\":false,\\\"leftExpression\\\":{\\\"className\\\":\\\"Terrasoft.ColumnExpression\\\",\\\"expressionType\\\":0,\\\"columnPath\\\":\\\"Contact\\\"},\\\"isAggregative\\\":false,\\\"key\\\":\\\"a56ea24f-7a0a-45cc-ac7d-aea72c02f091\\\",\\\"dataValueType\\\":10,\\\"leftExpressionCaption\\\":\\\"Контакт\\\",\\\"referenceSchemaName\\\":\\\"Contact\\\",\\\"isNull\\\":false}},\\\"logicalOperation\\\":0,\\\"isEnabled\\\":true,\\\"filterType\\\":6,\\\"rootSchemaName\\\":\\\"VwSystemUsers\\\",\\\"key\\\":\\\"\\\"}\",\"dataSourceFilters\":\"{\\\"items\\\":{\\\"a56ea24f-7a0a-45cc-ac7d-aea72c02f091\\\":{\\\"filterType\\\":2,\\\"comparisonType\\\":2,\\\"isEnabled\\\":true,\\\"trimDateTimeParameterToDate\\\":false,\\\"leftExpression\\\":{\\\"expressionType\\\":0,\\\"columnPath\\\":\\\"Contact\\\"},\\\"isNull\\\":false}},\\\"logicalOperation\\\":0,\\\"isEnabled\\\":true,\\\"filterType\\\":6,\\\"rootSchemaName\\\":\\\"VwSystemUsers\\\"}\"}",
                "GS5": "91908514-8490-4a04-bd23-b527aede3b09"
              }
            },
            {
              "BL1": "Terrasoft.Core.Process.ProcessSchemaParameter",
              "UId": "9d29c2f3-937a-497d-9691-dfb23b289726",
              "A2": "ResultType",
              "A3": "cb455b6f-78ff-4b1e-b241-c2bbc0b37e9f",
              "A4": "cb455b6f-78ff-4b1e-b241-c2bbc0b37e9f",
              "IL2": "d191b705-4494-473f-8e80-ac9b67df2821",
              "L1": "6b6b74e2-820d-490e-a017-2b73d4ccf2b0",
              "L8": {
                "GS1": 1,
                "GS2": "2",
                "GS5": "91908514-8490-4a04-bd23-b527aede3b09"
              }
            },
            {
              "BL1": "Terrasoft.Core.Process.ProcessSchemaParameter",
              "UId": "2e0d93b3-fb5f-47bf-99f9-af5958ec1a77",
              "A2": "ReadSomeTopRecords",
              "A3": "cb455b6f-78ff-4b1e-b241-c2bbc0b37e9f",
              "A4": "cb455b6f-78ff-4b1e-b241-c2bbc0b37e9f",
              "IL2": "d191b705-4494-473f-8e80-ac9b67df2821",
              "L1": "90b65bf8-0ffc-4141-8779-2420877af907",
              "L8": {
                "GS1": 1,
                "GS2": "true",
                "GS5": "91908514-8490-4a04-bd23-b527aede3b09"
              }
            },
            {
              "BL1": "Terrasoft.Core.Process.ProcessSchemaParameter",
              "UId": "f01c6570-1e8e-49c1-a4df-1eb656ef1c2c",
              "A2": "NumberOfRecords",
              "A3": "cb455b6f-78ff-4b1e-b241-c2bbc0b37e9f",
              "A4": "cb455b6f-78ff-4b1e-b241-c2bbc0b37e9f",
              "IL2": "d191b705-4494-473f-8e80-ac9b67df2821",
              "L1": "6b6b74e2-820d-490e-a017-2b73d4ccf2b0",
              "L8": {
                "GS1": 1,
                "GS2": "100",
                "GS5": "91908514-8490-4a04-bd23-b527aede3b09"
              }
            },
            {
              "BL1": "Terrasoft.Core.Process.ProcessSchemaParameter",
              "UId": "8f60e828-d324-41bc-ae90-b6d72d9fcbe4",
              "A2": "FunctionType",
              "A3": "cb455b6f-78ff-4b1e-b241-c2bbc0b37e9f",
              "A4": "cb455b6f-78ff-4b1e-b241-c2bbc0b37e9f",
              "IL2": "d191b705-4494-473f-8e80-ac9b67df2821",
              "L1": "6b6b74e2-820d-490e-a017-2b73d4ccf2b0",
              "L8": {
                "GS1": 1,
                "GS2": "0",
                "GS5": "91908514-8490-4a04-bd23-b527aede3b09"
              }
            },
            {
              "BL1": "Terrasoft.Core.Process.ProcessSchemaParameter",
              "UId": "d6b36b30-a249-4c82-85f7-57e91904ca5e",
              "A2": "AggregationColumnName",
              "A3": "cb455b6f-78ff-4b1e-b241-c2bbc0b37e9f",
              "A4": "cb455b6f-78ff-4b1e-b241-c2bbc0b37e9f",
              "IL2": "d191b705-4494-473f-8e80-ac9b67df2821",
              "L1": "394e160f-c8e0-46fa-9c0d-75d97e9e9169",
              "L8": {}
            },
            {
              "BL1": "Terrasoft.Core.Process.ProcessSchemaParameter",
              "UId": "9aef2388-70d3-43d2-89d0-3bfe6528a3d3",
              "A2": "OrderInfo",
              "A3": "cb455b6f-78ff-4b1e-b241-c2bbc0b37e9f",
              "A4": "cb455b6f-78ff-4b1e-b241-c2bbc0b37e9f",
              "IL2": "d191b705-4494-473f-8e80-ac9b67df2821",
              "L1": "394e160f-c8e0-46fa-9c0d-75d97e9e9169",
              "L8": {}
            },
            {
              "BL1": "Terrasoft.Core.Process.ProcessSchemaParameter",
              "UId": "b0619b24-3403-46eb-a2d3-c275e02c866f",
              "A2": "ResultEntity",
              "A3": "cb455b6f-78ff-4b1e-b241-c2bbc0b37e9f",
              "A4": "cb455b6f-78ff-4b1e-b241-c2bbc0b37e9f",
              "A5": "66e9e705-64b4-4dda-925e-d1e05a389eb6",
              "IL2": "d191b705-4494-473f-8e80-ac9b67df2821",
              "L1": "ebd85d37-0abf-4bbf-bb32-97dc3dffcc8c",
              "L8": {
                "GS1": 1,
                "GS5": "91908514-8490-4a04-bd23-b527aede3b09"
              },
              "L9": "333b1380-a40f-4972-9650-f3a51ead1a45"
            },
            {
              "BL1": "Terrasoft.Core.Process.ProcessSchemaParameter",
              "UId": "6593d379-5f61-413c-8de9-7e5ba72ac309",
              "A2": "ResultCount",
              "A3": "cb455b6f-78ff-4b1e-b241-c2bbc0b37e9f",
              "A4": "cb455b6f-78ff-4b1e-b241-c2bbc0b37e9f",
              "IL2": "d191b705-4494-473f-8e80-ac9b67df2821",
              "L1": "6b6b74e2-820d-490e-a017-2b73d4ccf2b0",
              "L8": {}
            },
            {
              "BL1": "Terrasoft.Core.Process.ProcessSchemaParameter",
              "UId": "b0dd7129-cc5f-4560-8494-1cfc38e9c71b",
              "A2": "ResultIntegerFunction",
              "A3": "cb455b6f-78ff-4b1e-b241-c2bbc0b37e9f",
              "A4": "cb455b6f-78ff-4b1e-b241-c2bbc0b37e9f",
              "IL2": "d191b705-4494-473f-8e80-ac9b67df2821",
              "L1": "6b6b74e2-820d-490e-a017-2b73d4ccf2b0",
              "L8": {}
            },
            {
              "BL1": "Terrasoft.Core.Process.ProcessSchemaParameter",
              "UId": "47eedbfb-169f-48a6-af10-324f88705ba0",
              "A2": "ResultFloatFunction",
              "A3": "cb455b6f-78ff-4b1e-b241-c2bbc0b37e9f",
              "A4": "cb455b6f-78ff-4b1e-b241-c2bbc0b37e9f",
              "IL2": "d191b705-4494-473f-8e80-ac9b67df2821",
              "L1": "ff22e049-4d16-46ee-a529-92d8808932dc",
              "L8": {}
            },
            {
              "BL1": "Terrasoft.Core.Process.ProcessSchemaParameter",
              "UId": "c7ef2b5d-5c0e-4425-8c02-f4869dd8a3bd",
              "A2": "ResultDateTimeFunction",
              "A3": "cb455b6f-78ff-4b1e-b241-c2bbc0b37e9f",
              "A4": "cb455b6f-78ff-4b1e-b241-c2bbc0b37e9f",
              "IL2": "d191b705-4494-473f-8e80-ac9b67df2821",
              "L1": "d21e9ef4-c064-4012-b286-fa1a8171da44",
              "L8": {}
            },
            {
              "BL1": "Terrasoft.Core.Process.ProcessSchemaParameter",
              "UId": "75d7e7a0-c445-4def-808b-80c0253f4f5f",
              "A2": "ResultRowsCount",
              "A3": "cb455b6f-78ff-4b1e-b241-c2bbc0b37e9f",
              "A4": "cb455b6f-78ff-4b1e-b241-c2bbc0b37e9f",
              "IL2": "d191b705-4494-473f-8e80-ac9b67df2821",
              "L1": "6b6b74e2-820d-490e-a017-2b73d4ccf2b0",
              "L8": {}
            },
            {
              "BL1": "Terrasoft.Core.Process.ProcessSchemaParameter",
              "UId": "c082cdec-3308-4a7a-b519-233c15b142e9",
              "A2": "CanReadUncommitedData",
              "A3": "cb455b6f-78ff-4b1e-b241-c2bbc0b37e9f",
              "A4": "cb455b6f-78ff-4b1e-b241-c2bbc0b37e9f",
              "IL2": "d191b705-4494-473f-8e80-ac9b67df2821",
              "L1": "90b65bf8-0ffc-4141-8779-2420877af907",
              "L8": {
                "GS1": 1,
                "GS2": "true",
                "GS5": "cb455b6f-78ff-4b1e-b241-c2bbc0b37e9f"
              }
            },
            {
              "BL1": "Terrasoft.Core.Process.ProcessSchemaParameter",
              "UId": "562007f7-ec62-4e34-a90f-a6ad0b198feb",
              "A2": "ResultEntityCollection",
              "A3": "cb455b6f-78ff-4b1e-b241-c2bbc0b37e9f",
              "A4": "cb455b6f-78ff-4b1e-b241-c2bbc0b37e9f",
              "IL2": "d191b705-4494-473f-8e80-ac9b67df2821",
              "L1": "51fb23ba-3eb2-11e2-b7d5-b0c76188709b",
              "L8": {}
            },
            {
              "BL1": "Terrasoft.Core.Process.ProcessSchemaParameter",
              "UId": "fa6c7e33-12a7-471e-a9ba-059fe620c57a",
              "A2": "EntityColumnMetaPathes",
              "A3": "cb455b6f-78ff-4b1e-b241-c2bbc0b37e9f",
              "A4": "cb455b6f-78ff-4b1e-b241-c2bbc0b37e9f",
              "IL2": "d191b705-4494-473f-8e80-ac9b67df2821",
              "L1": "394e160f-c8e0-46fa-9c0d-75d97e9e9169",
              "L8": {
                "GS1": 1,
                "GS2": "33751fbd-e7b0-4cc3-84b5-5ebd1b255698",
                "GS5": "91908514-8490-4a04-bd23-b527aede3b09"
              }
            },
            {
              "BL1": "Terrasoft.Core.Process.ProcessSchemaParameter",
              "UId": "7c7f3df5-4cd8-4d3b-8041-6e67e88809e6",
              "A2": "IgnoreDisplayValues",
              "A3": "cb455b6f-78ff-4b1e-b241-c2bbc0b37e9f",
              "A4": "cb455b6f-78ff-4b1e-b241-c2bbc0b37e9f",
              "IL2": "d191b705-4494-473f-8e80-ac9b67df2821",
              "L1": "90b65bf8-0ffc-4141-8779-2420877af907",
              "L8": {}
            },
            {
              "BL1": "Terrasoft.Core.Process.ProcessSchemaParameter",
              "UId": "170d5863-650d-47ec-a959-038e254bffda",
              "A2": "ResultCompositeObjectList",
              "A3": "cb455b6f-78ff-4b1e-b241-c2bbc0b37e9f",
              "A4": "cb455b6f-78ff-4b1e-b241-c2bbc0b37e9f",
              "IL2": "d191b705-4494-473f-8e80-ac9b67df2821",
              "L1": "651ec16f-d140-46db-b9e2-825c985a8ac2",
              "L8": {},
              "L18": [
                {
                  "BL1": "Terrasoft.Core.Process.ProcessSchemaParameter",
                  "UId": "33751fbd-e7b0-4cc3-84b5-5ebd1b255698",
                  "A2": "Contact",
                  "A3": "91908514-8490-4a04-bd23-b527aede3b09",
                  "A4": "91908514-8490-4a04-bd23-b527aede3b09",
                  "IL2": "d191b705-4494-473f-8e80-ac9b67df2821",
                  "L1": "b295071f-7ea9-4e62-8d1a-919bf3732ff2",
                  "L8": {},
                  "L9": "16be3651-8fe2-4159-8dd0-a803d4683dd3",
                  "L17": "33751fbd-e7b0-4cc3-84b5-5ebd1b255698",
                  "L12": 1
                }
              ]
            },
            {
              "BL1": "Terrasoft.Core.Process.ProcessSchemaParameter",
              "UId": "e81d99f2-dea2-49cc-895b-655c747d61fe",
              "A2": "ConsiderTimeInFilter",
              "A3": "cb455b6f-78ff-4b1e-b241-c2bbc0b37e9f",
              "A4": "cb455b6f-78ff-4b1e-b241-c2bbc0b37e9f",
              "IL2": "d191b705-4494-473f-8e80-ac9b67df2821",
              "L1": "90b65bf8-0ffc-4141-8779-2420877af907",
              "L8": {
                "GS1": 3,
                "GS2": "true",
                "GS5": "cb455b6f-78ff-4b1e-b241-c2bbc0b37e9f",
                "GS8": "false"
              }
            }
          ],
          "CL2": "FFFFFFFF",
          "J6": "cb455b6f-78ff-4b1e-b241-c2bbc0b37e9f"
        },
        {
          "BL1": "Terrasoft.Core.Process.ProcessSchemaSubProcess",
          "UId": "100c571b-6dda-4604-9389-acbb32318e4c",
          "A2": "SubProcess1",
          "A3": "91908514-8490-4a04-bd23-b527aede3b09",
          "A4": "91908514-8490-4a04-bd23-b527aede3b09",
          "A5": "6dd0278e-dd75-0115-993a-02041afea60c",
          "IL2": "af98b43e-e9c7-4284-90fc-bc090cd99fb4",
          "BL3": "706;172",
          "BL7": "49eafdbb-a89e-4bdf-a29d-7f17b1670a45",
          "BL8": "91908514-8490-4a04-bd23-b527aede3b09",
          "BN2": "69;55",
          "BO2": true,
          "BO3": true,
          "BP6": {
            "JE2": "f40882ce-46a6-48b6-9070-4933da4d19ff",
            "JE3": "ccb97db1-5a78-4260-9102-2a383e142074",
            "JE5": "a1a7f0ae-3fbf-4145-a2ea-49c8bf328e70",
            "JE6": "b54f302c-8283-4be1-abdd-1095b3c2ab9e",
            "JE7": "f29daad2-6d97-46f1-be4f-25f5be05243a"
          },
          "BP2": [
            {
              "BL1": "Terrasoft.Core.Process.ProcessSchemaParameter",
              "UId": "f40882ce-46a6-48b6-9070-4933da4d19ff",
              "A2": "InputRecordCollection",
              "A3": "91908514-8490-4a04-bd23-b527aede3b09",
              "A4": "91908514-8490-4a04-bd23-b527aede3b09",
              "IL2": "100c571b-6dda-4604-9389-acbb32318e4c",
              "L1": "651ec16f-d140-46db-b9e2-825c985a8ac2",
              "L8": {
                "GS1": 3,
                "GS2": "[#[IsOwnerSchema:false].[IsSchema:false].[Element:{d191b705-4494-473f-8e80-ac9b67df2821}].[Parameter:{170d5863-650d-47ec-a959-038e254bffda}]#]",
                "GS5": "91908514-8490-4a04-bd23-b527aede3b09"
              },
              "L12": 0,
              "L18": [
                {
                  "BL1": "Terrasoft.Core.Process.ProcessSchemaParameter",
                  "UId": "4e7c093a-5768-4894-b798-844457348c4e",
                  "A2": "ProcessSchemaContactID",
                  "A3": "110fb67b-9dfc-4678-af0c-93c3bf0f78b4",
                  "A4": "110fb67b-9dfc-4678-af0c-93c3bf0f78b4",
                  "IL2": "100c571b-6dda-4604-9389-acbb32318e4c",
                  "L1": "325a73b8-0f47-44a0-8412-7606f78003ac",
                  "L8": {
                    "GS5": "110fb67b-9dfc-4678-af0c-93c3bf0f78b4"
                  },
                  "L12": 0
                },
                {
                  "BL1": "Terrasoft.Core.Process.ProcessSchemaParameter",
                  "UId": "827456f3-ce90-4bf7-8f99-be5f45efb7f3",
                  "A2": "ProcessSchemaContactId",
                  "A3": "110fb67b-9dfc-4678-af0c-93c3bf0f78b4",
                  "A4": "110fb67b-9dfc-4678-af0c-93c3bf0f78b4",
                  "IL2": "100c571b-6dda-4604-9389-acbb32318e4c",
                  "L1": "23018567-a13c-4320-8687-fd6f9e3699bd",
                  "L8": {
                    "GS1": 3,
                    "GS2": "[#[IsOwnerSchema:false].[IsSchema:false].[Element:{d191b705-4494-473f-8e80-ac9b67df2821}].[Parameter:{33751fbd-e7b0-4cc3-84b5-5ebd1b255698}]#]",
                    "GS5": "91908514-8490-4a04-bd23-b527aede3b09"
                  },
                  "L12": 0
                },
                {
                  "BL1": "Terrasoft.Core.Process.ProcessSchemaParameter",
                  "UId": "d1db96c9-1a47-441f-a778-ab001e0a9803",
                  "A2": "ProcessSchemaNotificationText",
                  "A3": "110fb67b-9dfc-4678-af0c-93c3bf0f78b4",
                  "A4": "110fb67b-9dfc-4678-af0c-93c3bf0f78b4",
                  "IL2": "100c571b-6dda-4604-9389-acbb32318e4c",
                  "L1": "ddb3a1ee-07e8-4d62-b7a9-d0e618b00fbd",
                  "L8": {
                    "GS5": "110fb67b-9dfc-4678-af0c-93c3bf0f78b4"
                  }
                },
                {
                  "BL1": "Terrasoft.Core.Process.ProcessSchemaParameter",
                  "UId": "157a1033-a167-45d3-a3ec-77877b7b2e5b",
                  "A2": "ProcessSchemaNotificationTitle",
                  "A3": "110fb67b-9dfc-4678-af0c-93c3bf0f78b4",
                  "A4": "110fb67b-9dfc-4678-af0c-93c3bf0f78b4",
                  "IL2": "100c571b-6dda-4604-9389-acbb32318e4c",
                  "L1": "325a73b8-0f47-44a0-8412-7606f78003ac",
                  "L8": {
                    "GS5": "110fb67b-9dfc-4678-af0c-93c3bf0f78b4"
                  }
                }
              ]
            },
            {
              "BL1": "Terrasoft.Core.Process.ProcessSchemaParameter",
              "UId": "ccb97db1-5a78-4260-9102-2a383e142074",
              "A2": "OutputRecordCollection",
              "A3": "91908514-8490-4a04-bd23-b527aede3b09",
              "A4": "91908514-8490-4a04-bd23-b527aede3b09",
              "IL2": "100c571b-6dda-4604-9389-acbb32318e4c",
              "L1": "651ec16f-d140-46db-b9e2-825c985a8ac2",
              "L8": {},
              "L12": 1,
              "L18": [
                {
                  "BL1": "Terrasoft.Core.Process.ProcessSchemaParameter",
                  "UId": "1d62eb78-403f-067f-367a-8138201eb877",
                  "A2": "ProcessSchemaNotificationText",
                  "A3": "110fb67b-9dfc-4678-af0c-93c3bf0f78b4",
                  "A4": "110fb67b-9dfc-4678-af0c-93c3bf0f78b4",
                  "IL2": "100c571b-6dda-4604-9389-acbb32318e4c",
                  "L1": "ddb3a1ee-07e8-4d62-b7a9-d0e618b00fbd",
                  "L8": {
                    "GS5": "110fb67b-9dfc-4678-af0c-93c3bf0f78b4"
                  }
                },
                {
                  "BL1": "Terrasoft.Core.Process.ProcessSchemaParameter",
                  "UId": "d9c36d82-fb1f-07b3-32ee-5dbf456f0e2f",
                  "A2": "ProcessSchemaNotificationTitle",
                  "A3": "110fb67b-9dfc-4678-af0c-93c3bf0f78b4",
                  "A4": "110fb67b-9dfc-4678-af0c-93c3bf0f78b4",
                  "IL2": "100c571b-6dda-4604-9389-acbb32318e4c",
                  "L1": "325a73b8-0f47-44a0-8412-7606f78003ac",
                  "L8": {
                    "GS5": "110fb67b-9dfc-4678-af0c-93c3bf0f78b4"
                  }
                }
              ]
            },
            {
              "BL1": "Terrasoft.Core.Process.ProcessSchemaParameter",
              "UId": "a1a7f0ae-3fbf-4145-a2ea-49c8bf328e70",
              "A2": "CompletedIterationsCount",
              "A3": "91908514-8490-4a04-bd23-b527aede3b09",
              "A4": "91908514-8490-4a04-bd23-b527aede3b09",
              "IL2": "100c571b-6dda-4604-9389-acbb32318e4c",
              "L1": "6b6b74e2-820d-490e-a017-2b73d4ccf2b0",
              "L8": {},
              "L12": 1
            },
            {
              "BL1": "Terrasoft.Core.Process.ProcessSchemaParameter",
              "UId": "b54f302c-8283-4be1-abdd-1095b3c2ab9e",
              "A2": "TerminatedIterationsCount",
              "A3": "91908514-8490-4a04-bd23-b527aede3b09",
              "A4": "91908514-8490-4a04-bd23-b527aede3b09",
              "IL2": "100c571b-6dda-4604-9389-acbb32318e4c",
              "L1": "6b6b74e2-820d-490e-a017-2b73d4ccf2b0",
              "L8": {},
              "L12": 1
            },
            {
              "BL1": "Terrasoft.Core.Process.ProcessSchemaParameter",
              "UId": "f29daad2-6d97-46f1-be4f-25f5be05243a",
              "A2": "TotalIterationsCount",
              "A3": "91908514-8490-4a04-bd23-b527aede3b09",
              "A4": "91908514-8490-4a04-bd23-b527aede3b09",
              "IL2": "100c571b-6dda-4604-9389-acbb32318e4c",
              "L1": "6b6b74e2-820d-490e-a017-2b73d4ccf2b0",
              "L8": {},
              "L12": 1
            }
          ],
          "CK4": "110fb67b-9dfc-4678-af0c-93c3bf0f78b4",
          "CK2": [],
          "CK3": []
        },
        {
          "BL1": "Terrasoft.Core.Process.ProcessSchemaSequenceFlow",
          "UId": "a8b380c3-2945-4ea3-badd-6dafa49c890b",
          "A2": "SequenceFlow1",
          "A3": "91908514-8490-4a04-bd23-b527aede3b09",
          "A4": "91908514-8490-4a04-bd23-b527aede3b09",
          "A5": "6dd0278e-dd75-0115-993a-02041afea60c",
          "BL7": "0d8351f6-c2f4-4737-bdd9-6fbfe0837fec",
          "BL8": "91908514-8490-4a04-bd23-b527aede3b09",
          "CI1": "0df79a11-4de7-4be7-8a87-8f238a380ed6",
          "CI2": "d191b705-4494-473f-8e80-ac9b67df2821",
          "CI3": "null",
          "CI5": "FF939598",
          "CI6": 1,
          "CI11": "81;200",
          "CI12": "140;200"
        },
        {
          "BL1": "Terrasoft.Core.Process.ProcessSchemaSequenceFlow",
          "UId": "862bcaa0-2356-45fc-b75e-c7cbf207b2a8",
          "A2": "SequenceFlow2",
          "A3": "91908514-8490-4a04-bd23-b527aede3b09",
          "A4": "91908514-8490-4a04-bd23-b527aede3b09",
          "A5": "6dd0278e-dd75-0115-993a-02041afea60c",
          "BL7": "0d8351f6-c2f4-4737-bdd9-6fbfe0837fec",
          "BL8": "91908514-8490-4a04-bd23-b527aede3b09",
          "CI1": "d191b705-4494-473f-8e80-ac9b67df2821",
          "CI2": "100c571b-6dda-4604-9389-acbb32318e4c",
          "CI3": "null",
          "CI5": "FF939598",
          "CI6": 1,
          "CI11": "209;200",
          "CI12": "706;200"
        },
        {
          "BL1": "Terrasoft.Core.Process.ProcessSchemaSequenceFlow",
          "UId": "51d6716f-7599-4b81-9e72-7df0265cb8d7",
          "A2": "SequenceFlow3",
          "A3": "91908514-8490-4a04-bd23-b527aede3b09",
          "A4": "91908514-8490-4a04-bd23-b527aede3b09",
          "A5": "6dd0278e-dd75-0115-993a-02041afea60c",
          "BL7": "0d8351f6-c2f4-4737-bdd9-6fbfe0837fec",
          "BL8": "91908514-8490-4a04-bd23-b527aede3b09",
          "CI1": "100c571b-6dda-4604-9389-acbb32318e4c",
          "CI2": "a655d4a9-163f-4cf3-88b2-963564a11acd",
          "CI3": "null",
          "CI5": "FF939598",
          "CI6": 1,
          "CI11": "775;200",
          "CI12": "965;200"
        }
      ],
      "BK9": [],
      "BK18": "Business Process",
      "BK29": true,
      "BK30": true,
      "BK34": "null",
      "Labels": [],
      "BK24": []
    }
  }
}