﻿{
  "PackageData": [
    {
      "Row": [
        {
          "SchemaColumnUId": "ae0e45ca-c495-4fe7-a39d-3ab7278e1617",
          "Value": "de358f03-f439-4e0e-8b88-f2dfad40fe53"
        },
        {
          "SchemaColumnUId": "5868314d-f071-4b55-9ccc-a5557609f72c",
          "Value": "1587f5f3-78ff-492b-9590-7e1792643cfb"
        },
        {
          "SchemaColumnUId": "dc6037ae-6e25-4920-ab27-10d3dd9e2e1e",
          "Value": "bdf15ae1-1445-4cab-85cc-5ff492c810d5"
        },
        {
          "SchemaColumnUId": "f06e2eda-824e-415b-8e16-bcd4bd1cec90",
          "Value": false
        }
      ]
    }
  ]
}