﻿{
  "Descriptor": {
    "UId": "30c506f1-a4ef-42cc-b34e-645d2c7fe346",
    "Name": "GbcOrderCreateDelivery",
    "ModifiedOnUtc": "\/Date(1684065039000)\/",
    "ManagerName": "ProcessSchemaManager",
    "Caption": "Заказ. Добавление продуктов в Доставку"
  }
}