﻿{
  "Descriptor": {
    "UId": "380c5d46-b961-47e4-bde2-7557054a001c",
    "Name": "SysDcmSettings_b9ff89f9d63f4331aabb742531362199",
    "ModifiedOnUtc": "\/Date(1684058446000)\/",
    "InstallType": 0,
    "Schema": {
      "UId": "ee9f7e0e-eab3-45ba-ae0d-67ab41858d5c",
      "Name": "SysDcmSettings"
    },
    "Columns": [
      {
        "ColumnUId": "ae0e45ca-c495-4fe7-a39d-3ab7278e1617",
        "IsForceUpdate": false,
        "IsKey": true,
        "ColumnName": "Id",
        "DataTypeValueUId": "23018567-a13c-4320-8687-fd6f9e3699bd"
      },
      {
        "ColumnUId": "fa51db91-37a6-4df4-bbcd-8481740c5d8c",
        "IsForceUpdate": false,
        "IsKey": false,
        "ColumnName": "SysModuleEntity",
        "DataTypeValueUId": "b295071f-7ea9-4e62-8d1a-919bf3732ff2"
      },
      {
        "ColumnUId": "beb7f6b2-f338-45ac-80a8-7177238b52a9",
        "IsForceUpdate": false,
        "IsKey": false,
        "ColumnName": "StageColumnUId",
        "DataTypeValueUId": "23018567-a13c-4320-8687-fd6f9e3699bd"
      },
      {
        "ColumnUId": "42ed2383-1455-49ec-82df-1a184c12a398",
        "IsForceUpdate": false,
        "IsKey": false,
        "ColumnName": "Filters",
        "DataTypeValueUId": "c0f04627-4620-4bc0-84e5-9419dc8516b1"
      },
      {
        "ColumnUId": "2bf9d686-2f7e-464b-a049-041c3225dc51",
        "IsForceUpdate": false,
        "IsKey": false,
        "ColumnName": "DefaultSchemaUId",
        "DataTypeValueUId": "23018567-a13c-4320-8687-fd6f9e3699bd"
      }
    ]
  }
}